<svg version="1.1" xmlns="http://www.w3.org/2000/svg" xmlns:xlink="http://www.w3.org/1999/xlink" x="0px" y="0px"
	 viewBox="0 0 72 32" style="enable-background:new 0 0 72 32;" xml:space="preserve" class="popular-functions__grid__single-function__img-box__img">
<g>
	<path d="M32.7,7.5c-1.7,0-3.2,0.5-4.6,1.3V3.4c0-1.2-1-2.2-2.2-2.2c-1.2,0-2.2,1-2.2,2.2v13c0,0,0,0,0,0
		c0,4.9,4,8.9,8.9,8.9c4.9,0,8.9-4,8.9-8.9C41.6,11.5,37.6,7.5,32.7,7.5z M32.7,21c-2.5,0-4.6-2-4.6-4.6c0-2.5,2-4.6,4.6-4.6
		c2.5,0,4.6,2,4.6,4.6C37.3,18.9,35.2,21,32.7,21z"/>
	<path d="M49.4,21.2c-0.3-0.1-1.2-0.6-1.2-4.1V9.7c0-1.2-1-2.2-2.2-2.2c-1.2,0-2.2,1-2.2,2.2v7.4c0,2.6,0.4,6.3,3.6,7.9
		c1.1,0.5,2.4,0.1,2.9-1C51,23,50.5,21.7,49.4,21.2z"/>
	<path d="M46.1,6c1.3,0,2.4-1.1,2.4-2.4c0-1.3-1.1-2.4-2.4-2.4c-1.3,0-2.4,1.1-2.4,2.4C43.7,5,44.8,6,46.1,6z"/>
	<path d="M61.9,7.5c-4.9,0-8.9,4-8.9,8.9v12.4c0,1.2,1,2.2,2.2,2.2s2.2-1,2.2-2.2V24c1.3,0.8,2.9,1.3,4.6,1.3
		c4.9,0,8.9-4,8.9-8.9C70.8,11.5,66.8,7.5,61.9,7.5z M61.9,20.9c-2.5,0-4.6-2-4.6-4.6c0-2.5,2-4.6,4.6-4.6c2.5,0,4.6,2,4.6,4.6
		S64.4,20.9,61.9,20.9z"/>
	<polygon points="17.4,22.7 17.4,6.7 1.4,6.7 	"/>
</g>
</svg>
