<svg 
 xmlns="http://www.w3.org/2000/svg"
 xmlns:xlink="http://www.w3.org/1999/xlink"
 width="4px" height="5px">
<path fill-rule="evenodd"  fill="rgb(182, 182, 182)"
 d="M0.990,4.996 L3.995,2.495 L0.990,-0.004 L-0.004,0.813 L2.020,2.495 L-0.004,4.179 L0.990,4.996 Z"/>
</svg>