<svg version="1.1" xmlns="http://www.w3.org/2000/svg" xmlns:xlink="http://www.w3.org/1999/xlink" x="0px" y="0px"
	 viewBox="0 0 23 12.5" style="enable-background:new 0 0 23 12.5;" xml:space="preserve" class="">
<rect x="4.7" y="0.3" width="18" height="2"/>
<rect x="4.7" y="5.3" width="18" height="2"/>
<rect x="4.7" y="5.3" width="18" height="2"/>
<rect x="4.7" y="10.2" width="18" height="2"/>
<rect x="4.7" y="10.2" width="18" height="2"/>
</svg>
