<svg version="1.1" xmlns="http://www.w3.org/2000/svg" xmlns:xlink="http://www.w3.org/1999/xlink" x="0px" y="0px"
	 viewBox="0 0 50 52" style="enable-background:new 0 0 50 52;" xml:space="preserve" class="popular-functions__grid__single-function__img-box__img">
<g>
	<path d="M24.1,22.5H3c-0.6,0-1.2,0.3-1.6,0.7c-0.4,0.5-0.6,1.1-0.4,1.7l4.5,24.6c0.2,1,1,1.7,2,1.7h12.2
		c1,0,1.8-0.7,2-1.7l4.5-24.6c0.1-0.6-0.1-1.2-0.4-1.7C25.3,22.8,24.7,22.5,24.1,22.5z M19.6,49.1H7.5L3.1,24.6H24L19.6,49.1z"/>
	<path d="M10.6,16.1l5,3.1c0.2,0.1,0.4,0.2,0.6,0.2c0.4,0,0.7-0.2,0.9-0.5c0.3-0.5,0.1-1.2-0.4-1.5l-5-3.1
		c-0.5-0.3-1.2-0.1-1.5,0.4C10,15.1,10.1,15.8,10.6,16.1z"/>
	<path d="M15.9,12.1l6.8,4c0.2,0.1,0.4,0.1,0.5,0.1c0.1,0,0.2,0,0.4-0.1l7.5-2.7c0.6-0.2,0.8-0.8,0.6-1.4
		c-0.2-0.6-0.8-0.8-1.4-0.6L23.3,14L17,10.3c-0.5-0.3-1.2-0.1-1.5,0.4C15.2,11.2,15.4,11.8,15.9,12.1z"/>
	<path d="M43.4,11.3c-0.6,0-1.1,0.4-1.1,1c0,0.6,0.4,1.1,1,1.1c0.4,0,3.9,0.4,3.9,4.2v12c0,0.6,0.5,1.1,1.1,1.1
		c0.6,0,1.1-0.5,1.1-1.1v-12C49.3,12.9,45.4,11.4,43.4,11.3z"/>
	<path d="M37,11.9c3.1,0,5.7-2.5,5.7-5.7c0-3.1-2.5-5.7-5.7-5.7s-5.7,2.5-5.7,5.7C31.3,9.4,33.9,11.9,37,11.9z M37,2.7
		c1.9,0,3.5,1.6,3.5,3.5c0,1.9-1.6,3.5-3.5,3.5s-3.5-1.6-3.5-3.5C33.5,4.3,35,2.7,37,2.7z"/>
	<path d="M42.9,17.6c-0.6,0-1.1,0.5-1.1,1.1v28.5c0,0.9-0.6,1.8-1.6,1.9c-1.2,0.2-2.2-0.7-2.2-1.8V30.5
		c0-0.6-0.5-1.1-1.1-1.1s-1.1,0.5-1.1,1.1v16.7v0.1c0,1.1-1,2-2.2,1.8c-0.9-0.2-1.6-1-1.6-1.9V18.6c0-0.6-0.5-1.1-1.1-1.1
		c-0.6,0-1.1,0.5-1.1,1.1v28.5c0,1.9,1.3,3.6,3.2,4c1.5,0.3,2.9-0.2,3.8-1.2c0.5,0.6,1.3,1.1,2.1,1.2c2.6,0.5,4.8-1.4,4.8-3.9V18.6
		C43.9,18,43.4,17.6,42.9,17.6z"/>
</g>
</svg>
