<svg version="1.1" xmlns="http://www.w3.org/2000/svg" xmlns:xlink="http://www.w3.org/1999/xlink" x="0px" y="0px"
	 viewBox="0 0 56 54" style="enable-background:new 0 0 56 54;" xml:space="preserve" class="websites__grid__single-grid__img-box__img">
<g>
	<path d="M22.6,35.6c-0.6,0-1,0.4-1,1v2.3c-1.8,0.6-6.7,2.2-12.3,3.8c-7.6,2.2-7.7,8.9-7.7,9c0,0.6,0.4,1,1,1
		c0,0,0,0,0,0c0.5,0,1-0.4,1-1c0-0.2,0.1-5.3,6.3-7c6.9-2,13-4,13-4c0.4-0.1,0.7-0.5,0.7-0.9v-3C23.6,36.1,23.1,35.6,22.6,35.6z"/>
	<path d="M46.9,42.7c-5.5-1.6-10.5-3.2-12.3-3.8v-6.3c0,0,0,0,0-0.1c4.2-2.8,7-8.2,7-14.4c0-9.1-6.1-16.5-13.5-16.5
		c-4.7,0-8.9,3-11.3,7.5c-0.4,0.7,0.1,1.5,0.9,1.5c0.4,0,0.7-0.2,0.9-0.5c2.1-3.9,5.6-6.5,9.5-6.5c6.3,0,11.5,6.5,11.5,14.5
		c0,6.6-3.5,12.2-8.3,13.9c-0.4,0.1-0.7,0.5-0.7,0.9c0,0.7,0.7,1.2,1.3,0.9c0.2-0.1,0.5-0.2,0.7-0.3v6c0,0.4,0.3,0.8,0.7,0.9
		c0.1,0,6.1,2,13,4c6.1,1.8,6.3,6.8,6.3,7c0,0.6,0.4,1,1,1c0.6,0,1-0.4,1-1C54.6,51.6,54.5,44.8,46.9,42.7z"/>
	<path d="M18.1,18.6c-3,0-5.5,2.5-5.5,5.5s2.5,5.5,5.5,5.5s5.5-2.5,5.5-5.5S21.1,18.6,18.1,18.6z M18.1,27.6
		c-1.9,0-3.5-1.6-3.5-3.5s1.6-3.5,3.5-3.5s3.5,1.6,3.5,3.5S20,27.6,18.1,27.6z"/>
	<path d="M27.3,15.6h-2.8c-0.4-1.7-2-3-3.9-3h-3c-1.9,0-3.4,1.3-3.9,3h-2.5c-0.6-1.2-1.8-2-3.2-2s-2.6,0.8-3.2,2h-1
		c-1.3,0-2.4,1.1-2.4,2.4v13.3c0,1.3,1.1,2.4,2.4,2.4h23.3c1.3,0,2.4-1.1,2.4-2.4V17.9C29.6,16.6,28.6,15.6,27.3,15.6z M27.6,31.3
		c0,0.2-0.2,0.4-0.4,0.4H3.9c-0.2,0-0.4-0.2-0.4-0.4V18c0-0.2,0.2-0.4,0.4-0.4h2.5l0.2-0.8c0.1-0.7,0.8-1.2,1.5-1.2s1.3,0.5,1.5,1.2
		l0.2,0.8h5.9v-1c0-1.1,0.9-2,2-2h3c1.1,0,2,0.9,2,2v1h4.7c0.1,0,0.3,0.1,0.3,0.3V31.3z"/>
	<path d="M9.6,19.6h-3c-0.6,0-1,0.4-1,1s0.4,1,1,1h3c0.6,0,1-0.4,1-1S10.1,19.6,9.6,19.6z"/>
</g>
</svg>
