<svg version="1.1" xmlns="http://www.w3.org/2000/svg" xmlns:xlink="http://www.w3.org/1999/xlink" x="0px" y="0px"
	 viewBox="0 0 48 52" style="enable-background:new 0 0 48 52;" xml:space="preserve" class="popular-functions__grid__single-function__img-box__img">
<g>
	<path d="M8.6,31c-2.4,0-4.3,1.9-4.3,4.3c0,2.4,1.9,4.3,4.3,4.3s4.3-1.9,4.3-4.3C12.8,32.9,10.9,31,8.6,31z M8.6,37.4
		c-1.2,0-2.1-1-2.1-2.1c0-1.2,1-2.1,2.1-2.1s2.1,1,2.1,2.1C10.7,36.5,9.8,37.4,8.6,37.4z"/>
	<path d="M42.8,26.8C42.8,26.8,42.8,26.8,42.8,26.8c0-6.1-3.9-11.3-9.4-13.2c0.2-0.4,0.3-0.8,0.3-1.2v-1.3
		c0-1.4-1.1-2.5-2.5-2.5H17c-1.4,0-2.5,1.1-2.5,2.5v1.3c0,0.4,0.1,0.8,0.3,1.2c-5.4,1.9-9.4,7-9.4,13.1c0,0,0,0,0,0
		c-2.7,0.3-4.8,2.5-4.8,5.3v9.7c0,1.1,0.9,2,2,2h2V48c0,1.8,1.5,3.3,3.3,3.3h1.9c1.8,0,3.3-1.5,3.3-3.3v-4.1h22.4V48
		c0,1.8,1.5,3.3,3.3,3.3h1.9c1.8,0,3.3-1.5,3.3-3.3v-4.1h1.5c1.1,0,2-0.9,2-2v-9.7C47.6,29.3,45.4,27.1,42.8,26.8z M31.6,11.2v1.3
		c0,0.2-0.2,0.4-0.4,0.4h-2.3h-3.6v-2.1h5.9C31.4,10.7,31.6,10.9,31.6,11.2z M17,12.9c-0.2,0-0.4-0.2-0.4-0.4v-1.3
		c0-0.2,0.2-0.4,0.4-0.4h6.1v2.1h-3.8H17z M19.3,15h9.6c6.5,0,11.8,5.3,11.8,11.7H7.5C7.6,20.3,12.8,15,19.3,15z M11,48
		c0,0.7-0.5,1.2-1.2,1.2H7.9c-0.7,0-1.2-0.5-1.2-1.2v-4.1H11V48z M41.9,48c0,0.7-0.5,1.2-1.2,1.2h-1.9c-0.7,0-1.2-0.5-1.2-1.2v-4.1
		h4.3V48z M45.4,41.7H2.7v-9.6c0-1.8,1.4-3.2,3.2-3.2h1.6h33.1h1.6c1.8,0,3.2,1.4,3.2,3.2V41.7z"/>
	<path d="M39.5,31c-2.4,0-4.3,1.9-4.3,4.3c0,2.4,1.9,4.3,4.3,4.3s4.3-1.9,4.3-4.3C43.8,32.9,41.9,31,39.5,31z
		 M39.5,37.4c-1.2,0-2.1-1-2.1-2.1c0-1.2,1-2.1,2.1-2.1c1.2,0,2.1,1,2.1,2.1C41.7,36.5,40.7,37.4,39.5,37.4z"/>
	<path d="M17.1,34.2H31c0.6,0,1.1-0.5,1.1-1.1c0-0.6-0.5-1.1-1.1-1.1H17.1c-0.6,0-1.1,0.5-1.1,1.1
		C16.1,33.7,16.6,34.2,17.1,34.2z"/>
	<path d="M31.9,36.4H16.2c-0.6,0-1.1,0.5-1.1,1.1c0,0.6,0.5,1.1,1.1,1.1h15.7c0.6,0,1.1-0.5,1.1-1.1
		C33,36.8,32.5,36.4,31.9,36.4z"/>
	<path d="M17.1,6.7c0.6,0,1.1-0.5,1.1-1.1V2c0-0.6-0.5-1.1-1.1-1.1S16,1.4,16,2v3.6C16,6.2,16.5,6.7,17.1,6.7z"/>
	<path d="M11.7,8.4c0.2,0.2,0.5,0.3,0.8,0.3c0.3,0,0.5-0.1,0.8-0.3c0.4-0.4,0.4-1.1,0-1.5l-3-3c-0.4-0.4-1.1-0.4-1.5,0
		S8.3,5,8.7,5.4L11.7,8.4z"/>
	<path d="M6.4,12.9h4.3c0.6,0,1.1-0.5,1.1-1.1c0-0.6-0.5-1.1-1.1-1.1H6.4c-0.6,0-1.1,0.5-1.1,1.1
		C5.4,12.4,5.9,12.9,6.4,12.9z"/>
	<path d="M31.4,6.7c0.6,0,1.1-0.5,1.1-1.1V2C32.5,1.4,32,1,31.4,1c-0.6,0-1.1,0.5-1.1,1.1v3.6
		C30.4,6.2,30.8,6.7,31.4,6.7z"/>
	<path d="M36.1,8.7c0.3,0,0.5-0.1,0.8-0.3l3-3c0.4-0.4,0.4-1.1,0-1.5s-1.1-0.4-1.5,0l-3,3c-0.4,0.4-0.4,1.1,0,1.5
		C35.5,8.6,35.8,8.7,36.1,8.7z"/>
	<path d="M36.8,11.8c0,0.6,0.5,1.1,1.1,1.1h4.3c0.6,0,1.1-0.5,1.1-1.1c0-0.6-0.5-1.1-1.1-1.1h-4.3
		C37.2,10.7,36.8,11.2,36.8,11.8z"/>
</g>
</svg>
